Wednesday Birders - 2018 stats and historical analysis using R — misken 0,1,0 documentation
…
Let’s look at time series plots of number of birds counted for each
of the species in the Top 30 for 2018. We’ll need the following
data frame to power the plots.

top_species_byyear <- top_obs_byyear %>% 
  select("comName") %>% 
  inner_join(species_byyear, by = "comName") %>% 
  mutate(pctlists = num_lists / totlists)

top_species_byyear

## # A tibble: 114 x 6
## # Groups:   comName [30]
##    comName            birding_year num_lists tot_birds totlists pctlists
##    <chr>                     <dbl>     <int>     <dbl>    <int>    <dbl>
##  1 American Robin             2015        26       313       33    0.788
##  2 American Robin             2016        32       491       39    0.821
##  3 American Robin             2017        34       269       48    0.708
##  4 American Robin             2018        31       431       41    0.756
##  5 Canada Goose               2015        20       538       33    0.606
##  6 Canada Goose               2016        19       518       39    0.487
##  7 Canada Goose               2017        23       200       48    0.479
##  8 Canada Goose               2018        21       211       41    0.512
##  9 American Goldfinch         2015        25       141       33    0.758
## 10 American Goldfinch         2016        28       116       39    0.718
## # ... with 104 more rows
…
